{
  "priority" : 1000,
  "enabled" : true,
  "criteria": [
    { "path": "/priority", "operator": "==", "value": "[3]" },
    { "operator": "&&" },
    { "path": "/state", "operator": "!=", "value": "archived" },
    { "operator": "&&" },
    { "path": "/category", "operator": "==", "value": "anomaly" }
  ],
  "action": {
    "prioritize": -1,
    "alert": true,
    "archive": false
  }
}
